Replication of Does Seeing Faces of Young Black Boys Facilitate the Identification of Threatening Stimuli? by Todd et al. (2016, Psychological Science)
…
[1] 68

An additional passive exclusion, probably due to there not being valid data points.

Results of control measures

# Checking accuracy
acc_dat <- processed_dat  %>% 
  group_by(ID) %>% 
  summarise(mean_accuracy = mean(Correct)) 

acc_dat

# A tibble: 68 × 2
   ID                       mean_accuracy
   <chr>                            <dbl>
 1 558af5a1fdf99b7dfdbac177        0.846 
 2 55a1c40afdf99b1c400b549b        0.483 
 3 581649f0b434f0000184d2a9        0.902 
 4 5a08ddd0df3fa800015c36ac        0.0556
 5 5af135b75bbd0b00015ec3a7        0.860 
 6 5bb9cca600312000015713d8        0.972 
 7 5cd34d42fe890a00174debb5        0.895 
 8 5d4cfad0438eea001b5ddf90        0.839 
 9 5decaac46e09cf3792805023        0.161 
10 5e126c25a98a7a8fab258f14        0.909 
# … with 58 more rows
…
# Turning into factors for ANOVA
processed_dat$ID <-  as_factor(processed_dat$ID)
processed_dat$StimRace <-  as_factor(processed_dat$StimRace)
processed_dat$StimObj <-  as_factor(processed_dat$StimObj)

#Looking at summarized data
sum_dat <- processed_dat %>% 
  filter(Correct == 1) %>% 
  group_by(StimRace, StimObj, ID) %>% 
  get_summary_stats(LogRT, type = "mean_sd")

sum_dat

# A tibble: 210 × 7
   ID                       StimRace StimObj variable     n  mean    sd
   <fct>                    <fct>    <fct>   <fct>    <dbl> <dbl> <dbl>
 1 558af5a1fdf99b7dfdbac177 Black    Toy     LogRT       32 -1.20 0.234
 2 581649f0b434f0000184d2a9 Black    Toy     LogRT       35 -1.26 0.232
 3 5a08ddd0df3fa800015c36ac Black    Toy     LogRT       12 -1.08 0.17 
 4 5af135b75bbd0b00015ec3a7 Black    Toy     LogRT       31 -1.25 0.18 
 5 5bb9cca600312000015713d8 Black    Toy     LogRT       36 -1.06 0.137
 6 5cd34d42fe890a00174debb5 Black    Toy     LogRT       34 -1.16 0.197
 7 5d4cfad0438eea001b5ddf90 Black    Toy     LogRT       31 -1.20 0.189
 8 5decaac46e09cf3792805023 Black    Toy     LogRT       24 -1.33 0.327
 9 5e126c25a98a7a8fab258f14 Black    Toy     LogRT       34 -1.17 0.187
10 5e3a821036cd5e28f05fa245 Black    Toy     LogRT       30 -1.09 0.237
# … with 200 more rows
…
