Replication of Does Seeing Faces of Young Black Boys Facilitate the Identification of Threatening Stimuli? by Todd et al. (2016, Psychological Science)
…
[1] 65

3 additional passive exclusions, probably due to there not being valid data points.

Results of control measures

Checking accuracy

acc_dat <- processed_dat  %>% 
  group_by(ID) %>% 
  summarise(mean_accuracy = mean(Correct)) 

acc_dat

# A tibble: 65 × 2
   ID    mean_accuracy
   <chr>         <dbl>
 1 01            0.916
 2 02            0.916
 3 03            0.881
 4 04            0.678
 5 07            0.909
 6 08            0.902
 7 09            0.741
 8 10            0.755
 9 11            0.371
10 12            0    
# ℹ 55 more rows
…
# Turning into factors for ANOVA
processed_dat$ID <-  as_factor(processed_dat$ID)
processed_dat$StimRace <-  as_factor(processed_dat$StimRace)
processed_dat$StimObj <-  as_factor(processed_dat$StimObj)

#Looking at summarized data
sum_dat <- processed_dat %>% 
  filter(Correct == 1) %>% 
  group_by(StimRace, StimObj, ID) %>% 
  get_summary_stats(LogRT, type = "mean_sd")

sum_dat

# A tibble: 216 × 7
   ID    StimRace StimObj variable     n  mean    sd
   <fct> <fct>    <fct>   <fct>    <dbl> <dbl> <dbl>
 1 21    Black    Toy     LogRT       28 -1.35 0.293
 2 04    Black    Toy     LogRT       20 -1.49 0.337
 3 25    Black    Toy     LogRT       35 -1.38 0.238
 4 13    Black    Toy     LogRT       27 -1.33 0.282
 5 29    Black    Toy     LogRT       31 -1.04 0.194
 6 64    Black    Toy     LogRT       30 -1.20 0.252
 7 17    Black    Toy     LogRT       36 -1.03 0.087
 8 49    Black    Toy     LogRT       34 -1.26 0.21 
 9 66    Black    Toy     LogRT       32 -1.37 0.219
10 26    Black    Toy     LogRT       29 -1.33 0.22 
# ℹ 206 more rows
…
# Turning into factors for ANOVA
data_par$Subj <-  as_factor(data_par$Subj)
data_par$race_prime <-  as_factor(data_par$race_prime)
data_par$target <-  as_factor(data_par$target)

#Looking at summarized data
sum_dat_par <- data_par %>% 
  filter(Correct == TRUE) %>% 
  mutate(LogRT = log(RT)) %>% 
  group_by(race_prime, target, Subj) %>% 
  get_summary_stats(LogRT, type = "mean_sd")

sum_dat_par

# A tibble: 644 × 7
   Subj  race_prime target variable     n  mean    sd
   <fct> <fct>      <fct>  <fct>    <dbl> <dbl> <dbl>
 1 1     black      gun    LogRT       36  5.81 0.2  
 2 2     black      gun    LogRT       34  5.61 0.257
 3 3     black      gun    LogRT       33  5.45 0.242
 4 4     black      gun    LogRT       34  5.88 0.459
 5 5     black      gun    LogRT       35  5.29 0.358
 6 6     black      gun    LogRT       34  5.25 0.258
 7 7     black      gun    LogRT       35  5.29 0.258
 8 8     black      gun    LogRT       32  5.53 0.3  
 9 9     black      gun    LogRT       35  5.72 0.299
10 10    black      gun    LogRT       32  5.64 0.39 
# ℹ 634 more rows
…
